<?xml version="1.0" encoding="utf-8"?>
<svg version="1.1" id="Layer_1" xmlns="http://www.w3.org/2000/svg" xmlns:xlink="http://www.w3.org/1999/xlink" x="0px" y="0px"
	 viewBox="0 0 48 48" style="enable-background:new 0 0 48 48;" xml:space="preserve">
<path
   d="m 0,27.31779 c 0,0.484034 0.1815126,0.907563 0.5647059,1.25042 0.3226891,0.383194 0.7462185,0.564706 1.2705882,0.564706 H 31.462185 c 0.584874,0 1.068907,0.201681 1.472269,0.605042 0.403361,0.403361 0.605042,0.907563 0.605042,1.492437 0,0.584874 -0.201681,1.068908 -0.605042,1.452101 -0.403362,0.383193 -0.887395,0.584874 -1.492437,0.584874 -0.584874,0 -1.089076,-0.201681 -1.472269,-0.584874 -0.322689,-0.363025 -0.726051,-0.52437 -1.210084,-0.52437 -0.504202,0 -0.927731,0.181513 -1.290756,0.52437 -0.363026,0.342857 -0.544538,0.766386 -0.544538,1.230252 0,0.504202 0.181512,0.927731 0.564706,1.270588 1.129411,1.109244 2.460504,1.67395 3.952941,1.67395 1.573109,0 2.92437,-0.544538 4.053781,-1.633614 1.129412,-1.089075 1.67395,-2.4 1.67395,-3.973109 0,-1.573109 -0.564706,-2.904202 -1.694118,-4.033613 -1.129412,-1.129412 -2.480672,-1.694118 -4.033613,-1.694118 H 1.8352941 c -0.5042017,0 -0.9277311,0.181513 -1.2907563,0.52437 C 0.1815126,26.390059 0,26.813588 0,27.31779 Z m 0,-6.615126 c 0,0.463866 0.1815126,0.867227 0.5647059,1.230252 0.3428571,0.363025 0.7663865,0.52437 1.2705882,0.52437 H 42.252101 c 1.573109,0 2.92437,-0.544538 4.053781,-1.653782 C 47.435294,19.714429 48,18.383336 48,16.830395 48,15.277454 47.435294,13.926193 46.305882,12.81695 45.176471,11.707706 43.82521,11.143 42.252101,11.143 c -1.552941,0 -2.863866,0.544538 -3.932773,1.613445 -0.363025,0.32269 -0.544538,0.766387 -0.544538,1.351261 0,0.52437 0.181513,0.947899 0.52437,1.270588 0.342857,0.322689 0.766386,0.484034 1.270588,0.484034 0.484034,0 0.907563,-0.161345 1.270588,-0.484034 0.383193,-0.423529 0.847059,-0.62521 1.411765,-0.62521 0.584874,0 1.068907,0.201681 1.472269,0.605042 0.403361,0.403361 0.605042,0.887395 0.605042,1.472269 0,0.584874 -0.201681,1.068908 -0.605042,1.452101 -0.403362,0.383193 -0.887395,0.584874 -1.472269,0.584874 H 1.8352941 c -0.5042017,0 -0.9277311,0.181512 -1.2907563,0.52437 C 0.1815126,19.774933 0,20.198462 0,20.702664 Z"
   id="path597"
   style="stroke-width:2.01681" />
</svg>
